# randomly generated subset for sampling
# note that the distribution of classifications may differ as the sampling set is derived from the set of *unique* dependencies

# random samples:

>=1.12.26	at-least
>=0.43	at-least
<0.4,>=0.3	range
<3.6.1,>=3.5.6	range
>=1.12.24	at-least
<=1.0.1,>=1.0	range
==0.13.1	fixed
>=2.0.17	at-least
<2.0,>=1.3.1	range
>=0.1.4	at-least
<1.7.0,>=1.6.5	range
>=4.0.3	at-least
<1.0.0,>=0.104.0	range
>=2.5.7	at-least
>=1.1	at-least
==1.4.50	fixed
<3.0.0,>=2.1	range
<0.17.0,>=0.16.0	range
>=2.28.0	at-least
==1.4.53	fixed
<1.8,>=1.4	range
>=4.0.2	at-least
==2.3.4	fixed
==1.4.54	fixed
==2016.4	fixed
>=15.1	at-least
>=3.3.9	at-least
>=1.08	at-least
>=1.07	at-least
<0.95.0,>=0.94.0	range
>=1.6	at-least
>=1.4	at-least
<0.6	at-most
==1.0.16	fixed
>=2010	at-least
<0.49.0,>=0.48.0	range
<0.81.0,>=0.80.0	range
<0.5	at-most
==1.16.5	fixed
>=2.42.0	at-least
<=3.10,>=3.1.0	range
>=4.0.9	at-least
>=0.9.8	at-least
>=0.32.0	at-least
==0.8.2	fixed
==0.0.5	fixed
<=2013	at-most
>=2.0.18	at-least
<4,>=3.11	range
<1,>=0.8.9	range
==3.9.0	fixed
>0.4.4	at-least
<0.31.0,>=0.30.0	range
==2015.0.15	fixed
==0.8.10	fixed
>=0.25	at-least
>	unclassified
>=14	at-least
<2.0.0	at-most
>=1.34	at-least
>=1.6.4	at-least
==3.2.1	fixed
<=0.16.2	at-most
<0.4,>=0.3.1	range
>=0.0.2	at-least
>=1.33	at-least
==3.2.5	fixed
<1.9,>=1.6	range
>=0.18.1	at-least
<1.9,>=1.7	range
==0.7.5	fixed
==0.7.8	fixed
>=0.10.4	at-least
<=2.0,>=1.0	range
>=0.0.6	at-least
>=0.10.5	at-least
>=0.3	at-least
>=2.4.6	at-least
>=2	at-least
>=2.4.9	at-least
<=0.7.13,>=0.7.12	range
>=4.1.0	at-least
==1.4.33	fixed
<=1.5.1,>=1.4	range
>=5	at-least
>=0.7.99	at-least
>=1.29	at-least
<3.6.0,>=3.5.0.1	range
>=0.8	at-least
>=1.27	at-least
<4.0,>=3.0.10	range
==1.5.0	fixed
==1.5.5	fixed
<3.12,>=3.11	range
==1.5.4	fixed
<1.6.0,>=1.5.2	range
==0.8.3.1	fixed
>=11.0.0	at-least
<0.80,>=0.7.1	range
<0.14.0,>=0.13.0	range
>=2.4.0	at-least
==0.23.0	fixed
>=0.45.0	at-least
<0.1,>=0.0.7	range
<3.0,>=2.4	range
<2.0,>=1.5	range
==1.4.44	fixed
<2.0,>=1.6	range
>=0.4.10	at-least
<1.2,>=1.1	range
<1.1.0,>=1.0.0	range
==4.0.3	fixed
==1.4.49	fixed
<3.4,>=3.3.0.22	range
==0.19.1	fixed
==3.3.0	fixed
>=1.9.1	at-least
>=0.11.1	at-least
>=0.3.1	at-least
>=0.3.3	at-least
==2	fixed
==3	fixed
>=2.26.0	at-least
<3.7.1,>=3.6.4	range
==0.9.14	fixed
<=1.0.6,>=1.0.3	range
==0.9.13	fixed
==0.9.12	fixed
==1.8.8	fixed
>=1.48	at-least
==1.0.6	fixed
>=1.15.1	at-least
>=2016.09.01	at-least
==1.8.2	fixed
>=0.73	at-least
<1.10,>=1.9.3	range
==0.9.9.2.2	fixed
<1.13,>=1.10	range
>=2.40.0	at-least
<4.0.0,>=3.7.1	range
==0.4.5.1	fixed
>=0.11.0	at-least
==1.4.20	fixed
==0.2.5	fixed
>=2.37.0	at-least
>=1.1.3	at-least
==1.4.23	fixed
==0.2.1	fixed
==4.1.3	fixed
<0.89.0,>=0.88.0	range
==1.4.28	fixed
<1.7,>=1.5	range
<1.7,>=1.4	range
<0.46.0,>=0.45.0	range
<4.0,>=3.7.1	range
<=4.0	at-most
==0.18.1	fixed
>=1.8.3	at-least
>=2.53.2	at-least
<10,>=9	range
>=0.12.9	at-least
<2.0,>=1.4.6	range
>=2.7.3.22	at-least
>=5.1.2	at-least
==0.9.7	fixed
<2.1.0,>=2.0.0	range
==0.10.1	fixed
>=0.2.8	at-least
<1.0.0,>=0.1.4	range
>=0.12.2	at-least
<0.7.4,>=0.7.2	range
>=0.2.3	at-least
<0.2,>0.1.3	range
>=2.6.3	at-least
==3.10	fixed
>=4.3.2	at-least
>=2.6.5	at-least
<0.13,>=0.12	range
>=2.0	at-least
<1.1.0,>=1.0	range
<14.0.0,>=13.0.0	range
<=0.7.99,>=0.7.8	range
>=2.27.0	at-least
<1.6,>=1.4	range
>=2.9	at-least
>=12.2	at-least
>=3.09	at-least
<=3.3.0,>=3.1.2	range
>=3.0.0.	at-least
>=2.5	at-least
>=3.4.6	at-least
>=3.4.7	at-least
>=2.4	at-least
>=3.4.5	at-least
<1.11.0,>=1.8.0	range
>=3.4.1	at-least
>=0.99	at-least
>=0.10.4.1	at-least
>=2.33	at-least
==1.7.0	fixed
<=2.4.1,>=2.2.4	range
>=0.95	at-least
>=0.24.4	at-least
==0.9.2	fixed
==0.32.0	fixed
<3.13.0,>=3.11	range
>=0.2.9	at-least
==0.4.4.9	fixed
<4.0.0,>=3.0.0	range
<=1.7.8	at-most
==0.1.6	fixed
>=1.0.2	at-least
>=0.0.8.1	at-least
<1.999,>=1.0.9	range
==0.17.5	fixed
==0.17.2	fixed
>=0.13.8	at-least
>=5.2.1	at-least
>=0.13.3	at-least
==19.6.0	fixed
>=8.10.4	at-least
>=0.5.4	at-least
>=0.13.0	at-least
>=0.5.1	at-least
<1.2.3,>=1.1	range
<2.9,>=2.7.0	range
==2015.0.1	fixed
<2.0.0,>=1.6.0	range
<0.72.0,>=0.71.0	range
==0.5.10	fixed
>=11.1	at-least
>=3.7.1	at-least
>=1.0.16	at-least
>=5.1	at-least
>=2.3.10	at-least
==0.9	fixed
<1.32,>=1.30	range
==5.1.3	fixed
>=2.1.1	at-least
<=6.99,>=6.0	range
==2.7.3	fixed
==1.15	fixed
==0.2	fixed
>=2.1.6	at-least
==5.1.0	fixed
==0.4	fixed
<1.9.0,>=1.8.0	range
<0.1,>=0.0	range
>=0.1.46	at-least
==0.4.6	fixed
==1.3.11	fixed
<0.7,>=0.6	range
>=3.6.15	at-least
>=3.6.10	at-least
==1.3.16	fixed
<2.0.0,>=0.7.5	range
<2.0,>=1.6.1	range
<0.75.0,>=0.74.0	range
<0.7,>=0.6.9	range
>=0.4.5	at-least
>=0.4.6	at-least
>=9.0.0	at-least
==2.0.3	fixed
>=4.0	at-least
>=18.5	at-least
>=3.1.12	at-least
==2.0.7	fixed
==1.34	fixed
==1.9.7	fixed
==1.2.11	fixed
<3.0.0,>=2.19.0	range
<7.2,>=7.0	range
>=4.2	at-least
<3.4,>=3.3.0.10	range
==1.1.3	fixed
==1.9.0	fixed
==1.1.6	fixed
>=15.1.0	at-least
<3.4,>=3.3.0.18	range
==1.2	fixed
<20,>=2.2	range
==5.2.0	fixed
<1.11.0,>=1.10.1	range
<1.0,>=0.5	range
==1.4	fixed
<=1.10,>=1.8	range
==3.5.2.2	fixed
==0.3.7	fixed
==0.0.36	fixed
>=0.4.8	at-least
<2	at-most
<1.10,>=1.6.9	range
==8.9.1	fixed
>=1.2.2	at-least
>=1.0.20	at-least
>=1.2.3	at-least
>=0.11.14	at-least
>=1.0.23	at-least
<4.0,>=3.0.6	range
<2.2.0,>=2.1.3	range
>=2.4.10	at-least
<4.3.0,>=4.2	range
>=0.7.1	at-least
<0.39.0,>=0.38.0	range
==0.0.37	fixed
==0.6.6	fixed
<1,>=0.4	range
==2.49.2	fixed
<3.0.0,>=1.4.3	range
<1.5.0	at-most
<0.25.0,>=0.24.0	range
>=1.4.11	at-least
==2.9.0	fixed
==2.1.5	fixed
<0.7.0,>=0.6.5	range
>=3.9.1	at-least
<1.0,>=0.4.6	range
>2014	at-least
>=1.11.2	at-least
<3.4,>=3.3.0.4	range
==6.3	fixed
>=3.1.4	at-least
<2.1	at-most
<3.4,>=3.3.0.8	range
<=1.8,>=1.6	range
<1.9,==1.8.14	at-most
>=2.3.5	at-least
>=0.7.9	at-least
>=0.6.18	at-least
<1.3,>=1.2.1	range
<1.0.0,>=0.10.0	range
==0.6.0	fixed
>=1.5.0	at-least
<6.3,>=6.2	range
<0.16,>=0.14.3	range
==2.0.1.0	fixed
>=0.23	at-least
<4,>=3.2	range
>=0.5.3.5	at-least
<2.0,>=1.0.9	range
<2.1,>=2.0.5.	range
==3.0.4	fixed
>=0.22	at-least
<=1.9,>=1.8.4	range
>=0.39.4	at-least
<0.6,>=0.5	range
<=3.4.6,>=3.2.3	range
<3,>=2.13	range
==0.16	fixed
>=0.6.3	at-least
>=2.11.0	at-least
==0.5.8	fixed
==0.14.4	fixed
==5.4.7	fixed
<0.4.0,>=0.3.1	range
<1.0,>=0.3.1	range
<0.110.0,>=0.109.0	range
==2.2.4	fixed
==1.4.77	fixed
==0.3.2.1	fixed
<2.6,>=2.5	range
>=3.8.2	at-least
<=0.18.1,>=0.16.2	range
<2.41,>=2.40	range
>=1.10.4	at-least
>=3.0.7	at-least
<0.85.0,>=0.84.0	range
>=8.8.1	at-least
<1.8	at-most
<3.0.0,>=2.2.0	range
==1.3.6	fixed
==1.15.2	fixed
>=3.0.0	at-least
==0.97.0	fixed
==2.39.0	fixed
>=1.4.23	at-least
<0.23.0,>=0.22.0	range
>=1.4.1	at-least
==2015.2.18	fixed
<=1.0	at-most
==1.1.12	fixed
<2.6,>=2.5.0	range
>=1.4.29	at-least

# additional samples for classification: any

*	any

# additional samples for classification: unclassified

>	unclassified
>=	unclassified
