# randomly generated subset for sampling
# note that the distribution of classifications may differ as the sampling set is derived from the set of *unique* dependencies

# random samples:

^0.2.9	range
{"git"=>"https://github.com/jorishermans/dart-forcemvc"}	other
>=0.3.7+6	at-least
>=0.1.0+2 <0.2.0	range
^0.12.4+5	range
^2.0.0-alpha	range
{"version"=>"0.2.0-unofficial.2016111201", "hosted"=>{"name"=>"dev_compiler", "url"=>"http://pub.drafintech.it:5001"}}	other
0.24.2	fixed
0.1.0-alpha.6	fixed
>=1.7.3 <2.0.0	range
>=0.1.1 <0.2.0	range
>=0.1.4	at-least
>=1.0.0-dev <1.1.0-alpha	range
>=0.20.0	at-least
0.8.15	fixed
>0.12.0 <1.0.0	range
>=0.4.0+2 <0.6.0	range
0.3.0-alpha.1.1	fixed
{"git"=>"https://github.com/bwhite000/server-logger.git", "version"=>">=0.1.0 <2.0.0"}	other
>=0.9.2+3	at-least
>=0.5.13	at-least
^0.0.2+8	range
^0.12.13+5	range
^0.12.13+4	range
^1.13.0	range
^1.2.14	range
5.0.0-alpha	fixed
>=2.1.7 <3.0.0	range
>=0.1.1 <1.0.0	range
>=0.6.6 <0.6.7	range
>=0.5.3+2	at-least
{"version"=>"0.2.0-unofficial.2017042201", "hosted"=>{"name"=>"dev_compiler", "url"=>"https://pub.dart-polymer.com"}}	other
^0.1.0-dev.5	range
0.29.0-alpha.1	fixed
>=1.1.0 <1.2.0	range
>=0.2.1+5 < 0.3.0	range
{"git"=>"https://github.com/hleumas/clean_ajax"}	other
>=0.27.2 <0.28.0	range
>=0.21.2	at-least
^1.0.0-rc.3	range
>=0.21.0 <1.0.0	range
^1.0.0-rc.7	range
>=0.12.1 <1.0.0	range
>=0.0.12 <0.1.0	range
>=0.3.1+2 <0.3.2	range
>=1.1.0 <2.0.0	range
>=0.8.8 < 0.10.0	range
^0.12.24+1	range
^0.2.5	range
>=0.1.39 <0.2.0	range
>=0.13.0 < 1.0.0	range
2.0.0-beta.17	fixed
^3.3.10	range
^0.0.1389	range
^0.9.3	range
>=0.12.3+8 <0.13.0	range
>=2.2.6 <2.3.0	range
>=0.2.0 <0.37.0	range
>=0.8.1	at-least
>=0.11.0+4 <0.13.0	range
>=0.2.1+5.0.0 <0.3.0	range
>=0.0.30 <0.1.0	range
>=0.29.2 <0.30.0	range
>=0.10.5	at-least
>=0.0.6	at-least
0.12.24+8	fixed
>=0.21.1	at-least
^2.0.0-alpha.16	range
0.11.3+13	fixed
>=0.1.16 <0.2.0	range
{"git"=>"git://github.com/tekartik/pub.dart", "version"=>">=0.6.2"}	other
1.0.0-dev2	fixed
>=0.11.3+5	at-least
^1.1.26	range
{"path"=>"testing/todo_list"}	other
^0.12.3+9	range
^1.1.25	range
>=0.12.4+2 <0.13.0	range
{"git"=>"https://github.com/Jaguar-dart/source_gen_help.git"}	other
^0.14.0+1	range
>=1.0.0-dev.3 <1.0.0	range
>=0.30.4 <0.32.0	range
>=0.0.20 <2.0.0	range
>=1.2.1 <2.0.0	range
>=0.1.7 <=0.1.7+201306072346	range
>=0.0.4 <0.1.0	range
>=0.10.0 <0.17.0	range
>=0.18.0 <0.25.0	range
>=0.6.3+1 <0.10.0	range
^0.0.1-dev	range
>= 0.3.0	at-least
^0.14.0+4	range
^0.0.13	range
>=1.1.26 <2.0.0	range
>=0.8.7	at-least
>=0.15.1+5 <0.16.0	range
^0.28.1	range
>=0.23.0 <0.24.0	range
^0.1.8	range
>=0.9.2 <3.0.0	range
>=0.26.1+3 <0.31.0	range
^0.1.7	range
>=0.21.0 <0.27.0	range
>=0.21.0 <0.28.0	range
>=0.2.5 <0.3.0	range
0.4.7	fixed
^0.0.21	range
>2.3.0 <4.0.0	range
>=0.11.0+5 <0.13.0	range
^0.1.1-dev.1	range
^0.1.1-dev.5	range
>=0.12.0 <0.13.0	range
^0.0.18	range
>=3.0.0 <4.0.0	range
>=0.12.18	at-least
^1.0.0-beta	range
>=0.27.0 <0.29.0	range
^5.0.0-alpha	range
^0.6.14	range
^0.6.12	range
>=2.0.0 <2.1.0	range
>0.10.0 <1.0.0	range
>=0.0.2+2 <2.0.0	range
>=0.30.2 <0.33.0	range
>=0.0.34 <0.1.0	range
>=0.12.0 < 2.0.0	range
^0.6.19	range
>=2.0.1 <3.0.0	range
^2.0.0-alpha.48	range
{"git"=>{"ref"=>"feature/#75-multi", "url"=>"https://github.com/lteacher/dart_postgresql.git"}}	other
>=0.5.10 <0.6.0	range
^1.0.0-dev	range
>=0.8.1 <0.11.0	range
>=0.22.4 <0.23.0	range
^0.27.1	range
>=0.6.3+1	at-least
>=1.0.0+3	at-least
0.12.15+10	fixed
^2.0.0-alpha.41	range
>=0.15.0 <1.0.0	range
>=0.27.1 <0.30.0	range
>=0.2.0 <0.7.0	range
^0.9.7+6	range
>=0.5.0+2 <0.6.0	range
^4.0.3	range
>=0.1.0 <0.1.1	range
>=0.10.1+2 <1.0.0	range
>=0.9.9 <0.9.11	range
>=0.12.2	at-least
>=0.7.4 <0.7.5	range
^1.5.4	range
>=0.21.4 <0.25.0	range
>=0.6.0-beta.1+1 < 0.7.0	range
>=1.0.19 <2.0.0	range
>=0.19.0 <0.22.0	range
0.3.0-alpha.9	fixed
>=0.8.22	at-least
{"git"=>{"url"=>"https://github.com/Jaguar-dart/source_gen_help.git"}}	other
^1.0.19	range
0.13.1	fixed
>=0.6.3 <0.6.4	range
>=0.24.3	at-least
0.2.19	fixed
>=1.4.3 <1.5.0	range
>=0.24.0	at-least
^0.10.0-pre.7	range
>=0.12.0 < 0.13.0	range
>=0.0.12 <1.0.0	range
>=1.3.4 <2.0.0	range
^0.2.3+1	range
>=0.5.2 <0.5.3	range
^0.12.24	range
^0.12.22	range
>=0.12.1 <0.17.0	range
>=1.0.1	at-least
0.2.26	fixed
^0.12.25	range
>=0.12.0 <1.0.0	range
^0.29.11	range
>=0.0.9 <0.0.10	range
>=1.0.5	at-least
>=0.12.2 <0.14.0	range
^1.0.28	range
>=0.14.2 <0.16.0	range
^0.1.0-alpha.7	range
>=0.1.45 <0.2.0	range
>=0.9.2 <0.11.0	range
>=0.5.6 <0.7.0	range
>=0.6.7+2 <0.7.0	range
^0.7.11	range
>=0.29.1 <0.32.0	range
>=0.4.4 <0.4.5	range
>=0.5.5	at-least
>=0.9.7 <0.10.0	range
>=0.21.4 <0.26.0	range
>=0.1.2 <0.2.0	range
^0.1.0-dev	range
^0.14.1	range
0.31.0	fixed
>= 0.8.7	at-least
>=0.2.8 <2.9.0	range
{"version"=>"0.2.0-unofficial.0", "hosted"=>{"name"=>"dev_compiler", "url"=>"http://pub.drafintech.it:5001"}}	other
>=0.3.5 <0.4.0	range
>=1.0.0 <2.1.4	range
^2.2.6	range
^0.1.0-alpha.2	range
>=0.11.3 <1.0.0	range
>=0.0.0-dev < 0.1.0	range
>=0.22.0 <0.29.0	range
>=0.25.3	at-least
^0.2.13	range
0.0.1-alpha.0	fixed
>=2.1.2	at-least
^1.0.0-rc.16	range
^3.7.0	range
^1.0.0-rc.15	range
^0.1.47	range
>=0.10.0-pre.8 <1.0.0	range
^0.2.16	range
>=0.25.0+1 <0.26.0	range
>=0.8.2 <0.9.0	range
1.3.0	fixed
>0.0.1	at-least
>=0.2.14	at-least
1.3.1	fixed
{"git"=>"git://github.com/JosephMoniz/CRC32.git"}	other
>=0.2.10	at-least
>=0.2.13	at-least
<=0.2.13	at-most
>=1.3.1	at-least
>=0.1.43 <0.2.0	range
>=2.0.0-beta.17 <3.0.0	range
>=0.2.1 <0.2.0	range
>=0.1.0+2 <0.7.0	range
0.0.23	fixed
>=1.3.0	at-least
^0.11.2+1	range
>=0.6.6+3 <0.7.0	range
>= 0.1.3 <0.2.0	range
^0.6.3	range
^0.5.6	range
>=0.26.3 <0.27.0	range
^2.0.0-alpha+2	range
^5.0.0-alpha+7	range
>=0.13.0+1 <0.14.0	range
>=0.13.0 <0.23.0	range
>=0.15.0+2	at-least
>=2.0.7 <3.0.0	range
>=2.0.0 <5.0.0	range
>=0.4.5	at-least
>=0.4.18 <0.4.19	range
>=0.4.0	at-least
>=1.0.0-dev.1<1.1.0	range
>=0.10.2 <0.11.0	range
>=0.4.2 <0.5.0	range
>=0.14.0	at-least
<=0.3.0	at-most
^0.13.3	range
>=0.1.13 <0.2.0	range
^1.2.2+1	range
>=1.0.2 <2.0.0	range
0.0.36	fixed
^1.10.0	range
>=0.12.2+3 <0.13.0	range
1.0.0-rc.7	fixed
>=2.1.2 <3.0.0	range
>=1.3.0 <3.0.0	range
^2.0.2+1	range
^0.1.2+1	range
^2.1.13	range
>=0.12.0 <=0.13.0	range
>=0.5.0+1	at-least
0.1.0+1	fixed
>=0.2.10 <2.0.0	range
>=2.0.4	at-least
>=0.3.7 <0.3.8	range
^2.1.11	range
2.2.0	fixed
>=3.3.3 <4.0.0	range
{"git"=>{"ref"=>"support-package-url", "url"=>"https://github.com/luisvt/dart-sass"}}	other
^1.3.1	range
>=0.5.3 <1.0.0	range
^0.11.1+3	range
>=1.2.1	at-least
>=0.2.1 <0.3.0	range
^4.6.1	range
0.0.43	fixed
>=0.2.0 <0.21.0	range
^0.15.2+2	range
>=0.7.1 <0.8.0	range
>=0.24.4 <0.26.0	range
>= 1.0.1 < 1.1.0	range
^4.3.1	range
>=0.7.3	at-least
0.0.3	fixed
>=0.3.4 <1.0.0	range
0.0.1	fixed
^0.12.2	range
^0.12.30+1	range
>=0.10.0 <0.10.1	range
^0.12.3	range
>=0.1.2 <0.4.0	range
>=0.9.1+2 <0.10.0	range
0.10.0	fixed
^0.5.1+2	range
>=0.9.0 <1.0.1	range
>=0.6.21	at-least
>=0.6.20	at-least
>=0.9.3+1 <0.10.0	range
0.4.10	fixed
<0.12.0	at-most
>=0.30.3 <0.32.0	range
^2.0.7	range
^2.0.3	range
{"git"=>{"ref"=>"d5d427e", "url"=>"https://github.com/Jaguar-dart/source_gen_help.git"}}	other
>=0.27.1	at-least
{"git"=>"https://github.com/dart-lang/dart-protobuf.git", "version"=>">=0.1.0"}	other
>= 0.29.0 <= 0.30.0+4	range
^1.2.3	range
>=0.22.4 <0.27.0	range
>=0.7.5	at-least
>=0.6.15	at-least
^5.1.3	range
>=0.10.0-pre.13 <0.11.0	range
^4.3.3	range
>=0.4.2+3 <0.6.0	range
>=0.15.0 <0.22.0	range
^0.4.4	range
>=0.0.2+2 <0.1.0	range
^0.3.9	range
>0.11.0 <1.0.0	range
{"path"=>"../jaguar_query_postgresql"}	other
{"git"=>"https://github.com/mbullington/calzone_source_crawler.git"}	other
>=0.2.0 <1.0.0	range
>=0.12.1 <0.13.0	range
^0.7.10+1	range
>=2.1.0 <2.2.0	range
>=0.16.3	at-least
>=0.10.0-pre.1 <0.11.0	range
0.12.15+9	fixed
>=0.13.5 <1.0.0	range
^0.8.1-beta.2	range
>=0.1.5 <2.0.0	range
>=0.1.3 <0.5.0	range
>=0.9.0 <0.10.0	range
>=0.7.9 <=0.9.0	range
>= 0.12.13+5	at-least
>=2.9.4 <3.0.0	range
0.4.30	fixed
>=0.8.10+4 <0.12.0	range
>= 0.1.7	at-least
>=0.0.16 <1.0.0	range
>=0.6.5 <0.8.0	range
>=0.3.1 <0.3.2	range
>=0.18.0<0.19.0	range
>=0.11.1 <0.14.0	range
0.2.0-pre.4	fixed
>= 0.1.1	at-least
>=0.11.1+3 <0.12.0	range
>=0.6.9	at-least
^0.22.4	range
>=0.0.14	at-least
>=0.22.4 <0.28.0	range
0.22.0-dev	fixed
>=2.0.2 <3.0.0	range
^0.27.2-alpha.1	range
>=1.3.9 <1.5.0	range
>=1.4.1	at-least
>=0.8.9 < 1.0.0	range
{"git"=>{"ref"=>"editGist2", "url"=>"https://github.com/kasperpeulen/github.dart"}}	other
4.0.0-alpha.5	fixed
>=0.1.44 <0.2.0	range
>=0.3.1+1 <0.5.0	range
>=0.15.4 <0.16.0	range
^0.3.1	range
0.8.5	fixed
{"path"=>"test/fixtures/b"}	other
>=0.9.3+1 <1.0.0	range
^0.3.3	range
>=0.5.0+1 <0.8.0	range
>=0.12.3+3 <0.13.0	range
>=0.16.4+4 <0.17.0	range
>=0.21.1 <0.22.0	range

# additional samples for classification: any

any	any

# additional samples for classification: at-most

<0.13.0	at-most
<1.0.0	at-most
<0.6.1	at-most
<0.2.0	at-most
<=0.2.13	at-most
<=4.0.0	at-most
<=0.2.16	at-most
